Deeper Dive into Tidymodels for Machine Learning in R
…
---

```r
#extract the test set predictions themselves
test_predictions <- ames_wfl_fit %>% collect_predictions()
test_predictions
```

```
## # A tibble: 879 x 4
##    id                .pred  .row Sale_Price
##    <chr>             <dbl> <int>      <dbl>
##  1 train/test split -0.796     2     -1.13 
##  2 train/test split  0.315     8      0.345
##  3 train/test split  0.993     9      0.862
##  4 train/test split  0.332    10      0.313
##  5 train/test split  0.162    13      0.199
##  6 train/test split  2.32     16      2.87 
##  7 train/test split  1.87     18      2.11 
##  8 train/test split -0.541    24     -0.269
##  9 train/test split -1.29     31     -1.11 
## 10 train/test split  1.46     39      2.12 
## # ... with 869 more rows
```
…
---

## Extract the test set predictions themselves

```r
rf_test_predictions <- rf_ames_wfl_fit %>% collect_predictions()
rf_test_predictions
## # A tibble: 879 x 4
##    id                .pred  .row Sale_Price
##    <chr>             <dbl> <int>      <dbl>
##  1 train/test split -0.570     2     -1.13 
##  2 train/test split  0.250     8      0.345
##  3 train/test split  0.972     9      0.862
##  4 train/test split  0.399    10      0.313
##  5 train/test split  0.120    13      0.199
##  6 train/test split  2.24     16      2.87 
##  7 train/test split  1.65     18      2.11 
##  8 train/test split -0.310    24     -0.269
##  9 train/test split -1.26     31     -1.11 
## 10 train/test split  1.56     39      2.12 
## # ... with 869 more rows
```
…
---

### Plot tuning performance results over iterations

```r
autoplot(lasso_tune, metric = "rmse") 
```

<img src="slide2_web_files/figure-html/unnamed-chunk-37-1.png" width="50%" height="50%" style="display: block; margin: auto;" />
---

## Collected metrics

```
## # A tibble: 80 x 7
##     penalty .metric .estimator  mean     n std_err .config
##       <dbl> <chr>   <chr>      <dbl> <int>   <dbl> <chr>  
##  1 1.00e-10 rmse    standard   0.491    10  0.0193 Model01
##  2 1.00e-10 rsq     standard   0.758    10  0.0134 Model01
##  3 1.80e-10 rmse    standard   0.491    10  0.0193 Model02
##  4 1.80e-10 rsq     standard   0.758    10  0.0134 Model02
##  5 3.26e-10 rmse    standard   0.491    10  0.0193 Model03
##  6 3.26e-10 rsq     standard   0.758    10  0.0134 Model03
##  7 5.88e-10 rmse    standard   0.491    10  0.0193 Model04
##  8 5.88e-10 rsq     standard   0.758    10  0.0134 Model04
##  9 1.06e- 9 rmse    standard   0.491    10  0.0193 Model05
## 10 1.06e- 9 rsq     standard   0.758    10  0.0134 Model05
## # ... with 70 more rows
```
…
lf <- lasso_final %>%
  collect_metrics()
lf
## # A tibble: 2 x 3
##   .metric .estimator .estimate
##   <chr>   <chr>          <dbl>
## 1 rmse    standard       0.476
## 2 rsq     standard       0.771

#extract the test set predictions themselves
lasso_test_predictions <- lasso_final %>% collect_predictions()
lasso_test_predictions
## # A tibble: 879 x 4
##    id                 .pred  .row Sale_Price
##    <chr>              <dbl> <int>      <dbl>
##  1 train/test split -0.787      2     -1.13 
##  2 train/test split  0.0678     8      0.345
##  3 train/test split  0.492      9      0.862
##  4 train/test split  0.388     10      0.313
##  5 train/test split  0.0822    13      0.199
##  6 train/test split  2.50      16      2.87 
##  7 train/test split  1.12      18      2.11 
##  8 train/test split -0.485     24     -0.269
##  9 train/test split -0.779     31     -1.11 
## 10 train/test split  1.60      39      2.12 
## # ... with 869 more rows
```
…
